howto - How to estimate the growth rate stratified by groups?
…
# Load covid outbreak data
raw_dat <- 
  covidregionaldataUK %>% 
  as_tibble() %>% 
  filter(magrittr::is_in(region,c("England", "Scotland", 
                                  "Northern Ireland", "Wales"))) %>% 
  filter(date > lubridate::ymd(20200701)) %>%
  filter(date < lubridate::ymd(20201101))

# Read covid outbreak data
raw_dat

# A tibble: 488 × 13
   date       region   region_code cases_new cases_total deaths_new deaths_total
   <date>     <chr>    <chr>           <dbl>       <dbl>      <dbl>        <dbl>
 1 2020-07-02 England  E92000001         565      245041         40        36172
 2 2020-07-02 Norther… N92000002           3        5646          0          552
 3 2020-07-02 Scotland S92000003          13       18297          0         2546
 4 2020-07-02 Wales    W92000004          28       16647          3         1532
 5 2020-07-03 England  E92000001         543      245584         26        36198
 6 2020-07-03 Norther… N92000002           8        5654          2          554
 7 2020-07-03 Scotland S92000003           6       18303          1         2547
 8 2020-07-03 Wales    W92000004          19       16666          0         1532
 9 2020-07-04 England  E92000001         386      245970         31        36229
10 2020-07-04 Norther… N92000002           1        5655          0          554
# ℹ 478 more rows
# ℹ 6 more variables: recovered_new <dbl>, recovered_total <dbl>,
#   hosp_new <dbl>, hosp_total <dbl>, tested_new <dbl>, tested_total <dbl>
…
