howto - How to estimate the growth rate?
…
# Load the simulated Ebola outbreak data
data(ebola_sim_clean)

# Extract the first element of the list
linelist <- ebola_sim_clean$linelist

# Read linelist data
as_tibble(linelist)

# A tibble: 5,829 × 11
   case_id generation date_of_infection date_of_onset date_of_hospitalisation
   <chr>        <int> <date>            <date>        <date>                 
 1 d1fafd           0 NA                2014-04-07    2014-04-17             
 2 53371b           1 2014-04-09        2014-04-15    2014-04-20             
 3 f5c3d8           1 2014-04-18        2014-04-21    2014-04-25             
 4 6c286a           2 NA                2014-04-27    2014-04-27             
 5 0f58c4           2 2014-04-22        2014-04-26    2014-04-29             
 6 49731d           0 2014-03-19        2014-04-25    2014-05-02             
 7 f9149b           3 NA                2014-05-03    2014-05-04             
 8 881bd4           3 2014-04-26        2014-05-01    2014-05-05             
 9 e66fa4           2 NA                2014-04-21    2014-05-06             
10 20b688           3 NA                2014-05-05    2014-05-06             
# ℹ 5,819 more rows
# ℹ 6 more variables: date_of_outcome <date>, outcome <fct>, gender <fct>,
#   hospital <fct>, lon <dbl>, lat <dbl>
…
